# Blender MTL File: 'None'
# Material Count: 6

newmtl black
Ns 359.999993
# Manually set to 0 as blender always sets it to 1:
# https://blender.stackexchange.com/questions/73065/export-to-wavefront-always-gives-white-for-ambient-ka
Ka 0.000000 0.000000 0.000000
Kd 0.000000 0.000000 0.000000
Ks 0.500000 0.500000 0.500000
Ke 0.000000 0.000000 0.000000
Ni 1.000000
d 1.000000
illum 2

newmtl blue
Ns 548.851395
Ka 0.000000 0.000000 0.100000
Kd 0.000000 0.000000 1.000000
Ks 0.500000 0.500000 0.500000
Ke 0.000000 0.000000 0.000000
Ni 1.000000
d 1.000000
illum 3

newmtl green
Ns 359.999993
Ka 0.000000 0.100000 0.000000
Kd 0.000000 1.000000 0.000000
Ks 0.500000 0.500000 0.500000
Ke 0.000000 0.000000 0.000000
Ni 1.000000
d 1.000000
illum 2

newmtl red
Ns 359.999993
Ka 0.100000 0.000000 0.000000
Kd 1.000000 0.000000 0.000000
Ks 0.750000 0.750000 0.750000
Ke 0.000000 0.000000 0.000000
Ni 1.000000
d 1.000000
illum 2

newmtl white
Ns 359.999993
Ka 0.100000 0.100000 0.100000
Kd 1.000000 1.000000 1.000000
Ks 0.500000 0.500000 0.500000
Ke 0.000000 0.000000 0.000000
Ni 1.000000
d 0.700000
illum 2

newmtl yellow
Ns 359.999993
Ka 0.100000 0.100000 0.000000
Kd 1.000000 1.000000 0.000000
Ks 0.500000 0.500000 0.500000
Ke 0.000000 0.000000 0.000000
Ni 1.000000
d 1.000000
illum 0
